2016/06/01 * guld pre-founding contributions
    nherzing:Assets                              100 GULD
    nherzing:Income:guld                        -100 GULD
    guld:Liabilities                         -100 GULD
    guld:Equity:nherzing                          100 GULD
